<?xml version="1.0" encoding="iso-8859-1"?>
<!-- Generator: Adobe Illustrator 24.1.2, SVG Export Plug-In . SVG Version: 6.00 Build 0)  -->
<svg version="1.1" id="Layer_1" xmlns="http://www.w3.org/2000/svg" xmlns:xlink="http://www.w3.org/1999/xlink" x="0px" y="0px"
	 viewBox="0 0 28.361 28.39" style="enable-background:new 0 0 28.361 28.39;" xml:space="preserve">
<g>
	<circle cx="14.185" cy="14.193" r="5.379"/>
	<circle cx="14.185" cy="3.149" r="3.149"/>
	<circle cx="25.212" cy="14.195" r="3.149"/>
	<circle cx="3.149" cy="14.195" r="3.149"/>
	<circle cx="14.179" cy="25.241" r="3.149"/>
	<circle cx="6.366" cy="6.386" r="3.149"/>
	<circle cx="21.973" cy="6.388" r="3.149"/>
	<circle cx="6.383" cy="22" r="3.149"/>
	<circle cx="21.994" cy="22.001" r="3.149"/>
</g>
</svg>
