<?xml version="1.0" encoding="iso-8859-1"?>
<!-- Generator: Adobe Illustrator 24.1.2, SVG Export Plug-In . SVG Version: 6.00 Build 0)  -->
<svg version="1.1" id="Layer_1" xmlns="http://www.w3.org/2000/svg" xmlns:xlink="http://www.w3.org/1999/xlink" x="0px" y="0px"
	 viewBox="0 0 19.111 19.376" style="enable-background:new 0 0 19.111 19.376;" xml:space="preserve">
<polygon points="7.63,7.957 11.511,7.957 10.272,8.641 9.717,18.098 9,8.576 "/>
<path d="M12.279,15.13c-0.006,0.002-0.207,0.001-0.186-0.081c0.206-0.813,0.151-3.037-0.141-4.06
	c0.066,0.01,0.309,0.039,0.538-0.114c0.125-0.084,0.196-0.189,0.231-0.253c0.164-0.535,0.358-1.411,0.258-2.487
	c-0.074-0.798-0.285-1.443-0.473-1.891C12.31,5.923,12.093,5.59,11.855,5.25c-0.382-0.545-0.768-1.033-1.141-1.467
	c-0.418-0.729-0.376-1.457-0.016-1.745c0.069-0.055,0.231-0.16,0.538-0.147c1.696,0,4.991-0.038,5.087,0
	c0.047,0.194,0.04,1.073-0.016,1.174c-0.024,0.1-3.723-0.008-3.774,0.102c-0.102,0.222,0.04,1.675,0.105,1.789
	c1.707-0.021,4.383-0.058,5.12-0.063c0.124-0.001,0.193,0.115,0.078,0.212c-0.621,0.135-3.327,1.153-3.329,1.374
	c-0.005,0.39,1.706,3.683,2.441,5.163c0.234,0.472,0.147,0.483,0.027,0.423c0,0,0,0,0,0c0,0-1.413-0.812-2.177-0.671
	c-0.948,0.174-1.725,0.964-1.997,1.633C12.519,13.723,12.451,15.063,12.279,15.13z"/>
<path d="M7.076,15.13c0.006,0.002,0.207,0.001,0.186-0.081c-0.206-0.813-0.151-3.037,0.141-4.06
	c-0.066,0.01-0.309,0.039-0.538-0.114c-0.125-0.084-0.196-0.189-0.231-0.253c-0.164-0.535-0.358-1.411-0.258-2.487
	C6.449,7.338,6.66,6.693,6.848,6.245C7.045,5.923,7.261,5.59,7.5,5.25c0.382-0.545,0.768-1.033,1.141-1.467
	C9.06,3.054,9.018,2.326,8.658,2.038C8.589,1.983,8.426,1.878,8.12,1.891c-1.696,0-4.991-0.038-5.087,0
	c-0.047,0.194-0.04,1.073,0.016,1.174c0.024,0.1,3.723-0.008,3.774,0.102c0.102,0.222-0.04,1.675-0.105,1.789
	c-1.707-0.021-4.383-0.058-5.12-0.063C1.474,4.892,1.404,5.009,1.519,5.105C2.141,5.24,4.846,6.259,4.849,6.479
	c0.005,0.39-1.706,3.683-2.441,5.163c-0.234,0.472-0.147,0.483-0.027,0.423c0,0,0,0,0,0c0,0,1.413-0.812,2.177-0.671
	c0.948,0.174,1.725,0.964,1.997,1.633C6.836,13.723,6.904,15.063,7.076,15.13z"/>
</svg>
